…
    For each unit increase in x, y is expected on average to be
    higher/lower by a factor of e^{b_1}“.

predict test data

``` r
 titanic_pred <-predict(titanic_fit, test_data, type = "prob") %>%
  bind_cols(test_data %>% select(Survived, PassengerId)) 
titanic_pred
```

    ## # A tibble: 143 × 4
    ##    .pred_0 .pred_1 Survived PassengerId
    ##      <dbl>   <dbl> <fct>          <int>
    ##  1   0.473  0.527  0                  7
    ##  2   0.919  0.0812 0                 13
    ##  3   0.424  0.576  1                 16
    ##  4   0.434  0.566  1                 26
    ##  5   0.473  0.527  0                 36
    ##  6   0.198  0.802  0                 42
    ##  7   0.456  0.544  0                 50
    ##  8   0.198  0.802  1                 54
    ##  9   0.919  0.0812 0                 58
    ## 10   0.785  0.215  0                 71
    ## # … with 133 more rows
…
